{
  "project_info": {
    "project_number": "559707191404",
    "firebase_url": "https://hotel-52e97.firebaseio.com",
    "project_id": "hotel-52e97",
    "storage_bucket": "hotel-52e97.appspot.com"
  },
  "client": [
    {
      "client_info": {
        "mobilesdk_app_id": "1:559707191404:android:0ee26f561487448b",
        "android_client_info": {
          "package_name": "com.pro.hotel"
        }
      },
      "oauth_client": [
        {
          "client_id": "559707191404-1781j4jmdg61detkt9bh1djsll9c6ugj.apps.googleusercontent.com",
          "client_type": 1,
          "android_info": {
            "package_name": "com.pro.hotel",
            "certificate_hash": "c509568e81497b4dd058db16bdbc291407bb5e3a"
          }
        },
        {
          "client_id": "559707191404-hhckf7u1i8dk3o4fc70056o07h9o0bc0.apps.googleusercontent.com",
          "client_type": 3
        }
      ],
      "api_key": [
        {
          "current_key": "AIzaSyBPLP-vA-gKvUGerTnuMn1Pul95GLtwPUI"
        }
      ],
      "services": {
        "appinvite_service": {
          "other_platform_oauth_client": [
            {
              "client_id": "559707191404-hhckf7u1i8dk3o4fc70056o07h9o0bc0.apps.googleusercontent.com",
              "client_type": 3
            }
          ]
        }
      }
    }
  ],
  "configuration_version": "1"
}